…
Data

``` r
dt <- read_xlsx("C:\\Users\\ASUS\\Downloads\\Data6.xlsx")
dt # menampilkan data
```

    ## # A tibble: 22 × 7
    ##    Wilayah                PPM   IPM   RLS   PBH  PDRB   PKB
    ##    <chr>                <dbl> <dbl> <dbl> <dbl> <dbl> <dbl>
    ##  1 Sumba Barat           27.2  65.2  6.92 11.9  10199  82.8
    ##  2 Sumba Timur           28.1  67.0  7.57  5.87 16617  68.8
    ##  3 Kupang                21.8  65.8  7.42  6.17 13793  72.8
    ##  4 Timor Tengah Selatan  25.2  63.6  6.97  7.71 10953  83.8
    ##  5 Timor Tengah Utara    21.8  65.2  8.16  3.98 11511  77.6
    ##  6 Belu                  14.3  63.8  7.39  6.34 13997  65.5
    ##  7 Alor                  20.0  63.0  8.45  1.75  9900  73.6
    ##  8 Lembata               24.8  66.1  8.26  3.95  8767  73.4
    ##  9 Flores Timur          11.8  65.8  8.04  3.69 12818  62.4
    ## 10 Sikka                 12.6  66.9  6.98  5.02 10797  55.7
    ## # ℹ 12 more rows
…
